PIPELINE_Test/PIPELINE_Test.sim/sim_1/behav/xsim/simulate.log
Time resolution is 1 ps
INSTRUCTION: 00000000000000000000000000000000 
 reg_dst=x, jal_sel=x, alu_src=x, alu_op=xxx, branch=x, equal=x, mem_read=x, mem_write=x, jump=x, jump_sel=x, reg_write=x, bds_sel=x, mem_to_reg=x
INSTRUCTION: 00000000000000000000000000000000 
 reg_dst=1, jal_sel=0, alu_src=1, alu_op=010, branch=0, equal=0, mem_read=0, mem_write=0, jump=0, jump_sel=0, reg_write=1, bds_sel=0, mem_to_reg=0
INSTRUCTION: 00000000001000100001100000100001 
 reg_dst=1, jal_sel=0, alu_src=1, alu_op=010, branch=0, equal=0, mem_read=0, mem_write=0, jump=0, jump_sel=0, reg_write=1, bds_sel=0, mem_to_reg=0
INSTRUCTION: 00000000001000100001100000100001 
 reg_dst=1, jal_sel=0, alu_src=0, alu_op=010, branch=0, equal=0, mem_read=0, mem_write=0, jump=0, jump_sel=0, reg_write=1, bds_sel=0, mem_to_reg=0
INSTRUCTION: 10001100001000100000000000000000 
 reg_dst=1, jal_sel=0, alu_src=0, alu_op=010, branch=0, equal=0, mem_read=0, mem_write=0, jump=0, jump_sel=0, reg_write=1, bds_sel=0, mem_to_reg=0
INSTRUCTION: 10001100001000100000000000000000 
 reg_dst=0, jal_sel=0, alu_src=1, alu_op=000, branch=0, equal=0, mem_read=1, mem_write=0, jump=0, jump_sel=0, reg_write=1, bds_sel=0, mem_to_reg=1
INSTRUCTION: 10101100001000100000000000000000 
 reg_dst=0, jal_sel=0, alu_src=1, alu_op=000, branch=0, equal=0, mem_read=1, mem_write=0, jump=0, jump_sel=0, reg_write=1, bds_sel=0, mem_to_reg=1
INSTRUCTION: 10101100001000100000000000000000 
 reg_dst=0, jal_sel=0, alu_src=1, alu_op=000, branch=0, equal=0, mem_read=0, mem_write=1, jump=0, jump_sel=0, reg_write=0, bds_sel=0, mem_to_reg=0
INSTRUCTION: 00100000001000100000000000000000 
 reg_dst=0, jal_sel=0, alu_src=1, alu_op=000, branch=0, equal=0, mem_read=0, mem_write=1, jump=0, jump_sel=0, reg_write=0, bds_sel=0, mem_to_reg=0
INSTRUCTION: 00100000001000100000000000000000 
 reg_dst=0, jal_sel=0, alu_src=1, alu_op=000, branch=0, equal=0, mem_read=0, mem_write=0, jump=0, jump_sel=0, reg_write=1, bds_sel=0, mem_to_reg=0
INSTRUCTION: 00010000001000100000000000000000 
 reg_dst=0, jal_sel=0, alu_src=1, alu_op=000, branch=0, equal=0, mem_read=0, mem_write=0, jump=0, jump_sel=0, reg_write=1, bds_sel=0, mem_to_reg=0
INSTRUCTION: 00010000001000100000000000000000 
 reg_dst=0, jal_sel=0, alu_src=0, alu_op=110, branch=1, equal=1, mem_read=0, mem_write=0, jump=0, jump_sel=0, reg_write=0, bds_sel=0, mem_to_reg=0
INSTRUCTION: 00010100001000100000000000000000 
 reg_dst=0, jal_sel=0, alu_src=0, alu_op=110, branch=1, equal=1, mem_read=0, mem_write=0, jump=0, jump_sel=0, reg_write=0, bds_sel=0, mem_to_reg=0
INSTRUCTION: 00010100001000100000000000000000 
 reg_dst=0, jal_sel=0, alu_src=0, alu_op=110, branch=1, equal=0, mem_read=0, mem_write=0, jump=0, jump_sel=0, reg_write=0, bds_sel=0, mem_to_reg=0
INSTRUCTION: 00001000000000000000000000000000 
 reg_dst=0, jal_sel=0, alu_src=0, alu_op=110, branch=1, equal=0, mem_read=0, mem_write=0, jump=0, jump_sel=0, reg_write=0, bds_sel=0, mem_to_reg=0
INSTRUCTION: 00001000000000000000000000000000 
 reg_dst=0, jal_sel=0, alu_src=0, alu_op=000, branch=0, equal=0, mem_read=0, mem_write=0, jump=1, jump_sel=0, reg_write=0, bds_sel=0, mem_to_reg=0
INSTRUCTION: 00001100000000000000000000000000 
 reg_dst=0, jal_sel=0, alu_src=0, alu_op=000, branch=0, equal=0, mem_read=0, mem_write=0, jump=1, jump_sel=0, reg_write=0, bds_sel=0, mem_to_reg=0
INSTRUCTION: 00001100000000000000000000000000 
 reg_dst=0, jal_sel=1, alu_src=0, alu_op=000, branch=0, equal=0, mem_read=0, mem_write=0, jump=1, jump_sel=0, reg_write=0, bds_sel=1, mem_to_reg=0
INSTRUCTION: 00000000001000000000000000001000 
 reg_dst=0, jal_sel=1, alu_src=0, alu_op=000, branch=0, equal=0, mem_read=0, mem_write=0, jump=1, jump_sel=0, reg_write=0, bds_sel=1, mem_to_reg=0
INSTRUCTION: 00000000001000000000000000001000 
 reg_dst=0, jal_sel=0, alu_src=0, alu_op=000, branch=0, equal=0, mem_read=0, mem_write=0, jump=0, jump_sel=1, reg_write=0, bds_sel=0, mem_to_reg=0
INSTRUCTION: 00000000000000010000000000001001 
 reg_dst=0, jal_sel=0, alu_src=0, alu_op=000, branch=0, equal=0, mem_read=0, mem_write=0, jump=0, jump_sel=1, reg_write=0, bds_sel=0, mem_to_reg=0
INSTRUCTION: 00000000000000010000000000001001 
 reg_dst=1, jal_sel=0, alu_src=0, alu_op=000, branch=0, equal=0, mem_read=0, mem_write=0, jump=0, jump_sel=1, reg_write=1, bds_sel=1, mem_to_reg=0
$finish called at time : 120 ns : File "/home/bruno/Documents/Facultad/5to_anio/Arquitectura_de_Computadoras/Ejercicios_Verilog/sources/PIPELINE_Test/PIPELINE/sims/Mod_Ctrl_Units/MainControlUnit_tb.v" Line 98
